
> sendmaileverestspices@1.0.0 start /local/test/everestSendMail
> nodemon api.js

[33m[nodemon] 2.0.4[39m
[33m[nodemon] to restart at any time, enter `rs`[39m
[33m[nodemon] watching path(s): *.*[39m
[33m[nodemon] watching extensions: js,mjs,json[39m
[32m[nodemon] starting `node api.js`[39m
events.js:174
      throw er; // Unhandled 'error' event
      ^

Error: EBADF: bad file descriptor, read
Emitted 'error' event at:
    at lazyFs.read (internal/fs/streams.js:165:12)
    at FSReqWrap.wrapper [as oncomplete] (fs.js:467:17)
npm ERR! code ELIFECYCLE
npm ERR! errno 1
npm ERR! sendmaileverestspices@1.0.0 start: `nodemon api.js`
npm ERR! Exit status 1
npm ERR! 
npm ERR! Failed at the sendmaileverestspices@1.0.0 start script.
npm ERR! This is probably not a problem with npm. There is likely additional logging output above.

npm ERR! A complete log of this run can be found in:
npm ERR!     /home/devuser/.npm/_logs/2020-12-10T05_47_52_615Z-debug.log

> sendmaileverestspices@1.0.0 start /local/test/everestSendMail
> nodemon api.js

[33m[nodemon] 2.0.4[39m
[33m[nodemon] to restart at any time, enter `rs`[39m
[33m[nodemon] watching path(s): *.*[39m
[33m[nodemon] watching extensions: js,mjs,json[39m
[32m[nodemon] starting `node api.js`[39m
events.js:174
      throw er; // Unhandled 'error' event
      ^

Error: EBADF: bad file descriptor, read
Emitted 'error' event at:
    at lazyFs.read (internal/fs/streams.js:165:12)
    at FSReqWrap.wrapper [as oncomplete] (fs.js:467:17)
npm ERR! code ELIFECYCLE
npm ERR! errno 1
npm ERR! sendmaileverestspices@1.0.0 start: `nodemon api.js`
npm ERR! Exit status 1
npm ERR! 
npm ERR! Failed at the sendmaileverestspices@1.0.0 start script.
npm ERR! This is probably not a problem with npm. There is likely additional logging output above.

npm ERR! A complete log of this run can be found in:
npm ERR!     /home/devuser/.npm/_logs/2020-12-10T05_48_17_460Z-debug.log
Express server started at port : 3060
Express server started at port : 3060
askd 4
you have matching salt key 123456789
[0mPOST /sendmail/everestSpices [32m200[0m 2633.172 ms - 494[0m
askd 6
you have matching salt key 123456789
[0mPOST /sendmail/everestSpices [32m200[0m 2359.048 ms - 478[0m
Express server started at port : 3060
you have matching salt key 123456789
[0mPOST /sendmail/everestSpices/contactform [32m200[0m 2502.646 ms - 455[0m

> sendmaileverestspices@1.0.0 start /local/test/everestSendMail
> node api.js

Express server started at port : 3060
MongoDB Connection Succeeded restro.
[0mGET / [33m404[0m 2.540 ms - 139[0m
[0mGET / [33m404[0m 0.269 ms - 139[0m
[0mGET / [33m404[0m 0.291 ms - 139[0m
[0mGET / [33m404[0m 0.138 ms - 139[0m

> sendmaileverestspices@1.0.0 start /local/test/everestSendMail
> node api.js

Express server started at port : 3060
MongoDB Connection Succeeded restro.
[0mGET / [33m404[0m 2.444 ms - 139[0m
askd 2
you have matching salt key 123456789
[0mPOST /sendmail/everestSpices [32m200[0m 2988.964 ms - 514[0m
[0mGET / [33m404[0m 0.286 ms - 139[0m
[0mGET / [33m404[0m 0.296 ms - 139[0m
[0mGET / [33m404[0m 0.286 ms - 139[0m
askd 0
you have matching salt key 123456789
[0mPOST /sendmail/everestSpices [32m200[0m 2817.298 ms - 500[0m
askd 0
you have matching salt key 123456789
[0mPOST /sendmail/everestSpices [32m200[0m 2297.785 ms - 500[0m
askd 0
you have matching salt key 123456789
[0mPOST /sendmail/everestSpices [32m200[0m 2245.974 ms - 502[0m
askd 0
you have matching salt key 123456789
[0mPOST /sendmail/everestSpices [32m200[0m 2634.221 ms - 504[0m
askd 0
you have matching salt key 123456789
[0mPOST /sendmail/everestSpices [32m200[0m 2594.913 ms - 502[0m
askd 0
you have matching salt key 123456789
[0mPOST /sendmail/everestSpices [32m200[0m 2342.317 ms - 502[0m
askd 0
you have matching salt key 123456789
[0mPOST /sendmail/everestSpices [32m200[0m 2767.897 ms - 502[0m
askd 0
you have matching salt key 123456789
[0mPOST /sendmail/everestSpices [32m200[0m 3330.527 ms - 502[0m
askd 0
you have matching salt key 123456789
[0mPOST /sendmail/everestSpices [32m200[0m 2499.799 ms - 502[0m
askd 0
you have matching salt key 123456789
[0mPOST /sendmail/everestSpices [32m200[0m 2833.134 ms - 500[0m
askd 0
you have matching salt key 123456789
[0mPOST /sendmail/everestSpices [32m200[0m 2328.324 ms - 500[0m
askd 0
you have matching salt key 123456789
[0mPOST /sendmail/everestSpices [32m200[0m 2441.418 ms - 500[0m
askd 0
you have matching salt key 123456789
[0mPOST /sendmail/everestSpices [32m200[0m 2325.863 ms - 500[0m
askd 0
you have matching salt key 123456789
[0mPOST /sendmail/everestSpices [32m200[0m 2278.697 ms - 500[0m
